<?xml version="1.0" encoding="iso-8859-1"?>
<!-- Generator: Adobe Illustrator 18.0.0, SVG Export Plug-In . SVG Version: 6.00 Build 0)  -->
<!DOCTYPE svg PUBLIC "-//W3C//DTD SVG 1.1//EN" "http://www.w3.org/Graphics/SVG/1.1/DTD/svg11.dtd">
<svg xmlns="http://www.w3.org/2000/svg" xmlns:xlink="http://www.w3.org/1999/xlink" version="1.1" id="Capa_1" x="0px" y="0px" viewBox="0 0 55.325 55.325" style="enable-background:new 0 0 55.325 55.325;" xml:space="preserve" width="512px" height="512px">
<g>
	<path d="M40.825,5.502c-5.39,0-10.412,6.47-12.956,16.561c-3.972-1.007-8.27-1.561-12.425-1.561c-4.756,0-8.76,1.603-11.579,4.634   C1.373,27.817,0,31.411,0,35.254c0,6.847,4.536,14.215,14.497,14.215c0.143,0,0.285,0.008,0.426,0.016   c0.175,0.009,0.349,0.018,0.521,0.018c5.61,0,11.482-1.006,16.456-2.782c2.61,2.031,5.888,3.102,9.198,3.102   c2.152,0,4.314-0.448,6.306-1.367c5.013-2.314,7.888-7.099,7.888-13.125c0-0.143,0.008-0.285,0.016-0.426   c0.009-0.175,0.018-0.349,0.018-0.521C55.325,20.723,49.37,5.502,40.825,5.502z M15.028,47.488   c-0.176-0.01-0.354-0.019-0.531-0.019C5.911,47.469,2,41.137,2,35.254c0-3.337,1.183-6.447,3.33-8.756   c2.431-2.614,5.928-3.996,10.114-3.996c4.278,0,8.482,0.583,12.25,1.578l0.629,0.175c1.014,0.282,1.982,0.593,2.906,0.925   c0.166,0.06,0.329,0.122,0.492,0.184c0.212,0.08,0.421,0.161,0.628,0.243c0.252,0.101,0.504,0.201,0.75,0.306   c0.016,0.007,0.032,0.014,0.049,0.021c3.157,1.351,5.705,3.014,7.309,4.829c0.057,0.065,0.117,0.13,0.172,0.196   c0.107,0.127,0.207,0.255,0.305,0.384c0.083,0.11,0.162,0.221,0.238,0.332c0.072,0.104,0.146,0.209,0.211,0.314   c0.133,0.215,0.256,0.431,0.362,0.648c0.027,0.055,0.046,0.11,0.071,0.165c0.082,0.181,0.156,0.362,0.218,0.544   c0.026,0.076,0.048,0.153,0.071,0.229c0.05,0.169,0.091,0.338,0.123,0.508c0.014,0.071,0.029,0.141,0.04,0.212   c0.035,0.236,0.058,0.472,0.058,0.708c0,0.211-0.016,0.422-0.044,0.634c-0.01,0.077-0.029,0.153-0.043,0.23   c-0.024,0.132-0.048,0.264-0.082,0.397c-0.026,0.101-0.061,0.201-0.093,0.301c-0.034,0.104-0.067,0.208-0.107,0.313   c-0.047,0.12-0.1,0.24-0.155,0.359c-0.036,0.079-0.073,0.157-0.112,0.236c-0.072,0.141-0.149,0.281-0.232,0.421   c-0.029,0.048-0.058,0.096-0.088,0.144c-0.105,0.167-0.214,0.333-0.335,0.498c-0.005,0.006-0.01,0.012-0.014,0.019   c-1.525,2.073-4.296,3.98-7.826,5.497c-0.034,0.015-0.067,0.03-0.101,0.044c-0.185,0.079-0.377,0.154-0.566,0.231   c-0.215,0.087-0.43,0.174-0.652,0.258c-4.685,1.793-10.487,2.919-16.431,2.919C15.307,47.502,15.168,47.495,15.028,47.488z    M53.311,34.799c-0.01,0.176-0.019,0.354-0.019,0.531c0,5.214-2.451,9.336-6.727,11.31c-4.009,1.849-8.807,1.502-12.45-0.788   c5.988-2.572,10.209-6.351,10.209-10.85c0-0.305-0.025-0.605-0.063-0.903c-0.004-0.033-0.012-0.066-0.017-0.099   c-0.716-5.054-6.779-9.105-14.458-11.406c2.276-9.067,6.654-15.092,11.037-15.092c6.425,0,12.5,13.063,12.5,26.881   C53.325,34.521,53.317,34.66,53.311,34.799z" fill="#8A8A8A"/>
	<path d="M8.749,26.189c-2.639,1.861-4.246,4.874-4.41,8.267c-0.026,0.552,0.399,1.021,0.951,1.047   c0.016,0.001,0.032,0.001,0.049,0.001c0.53,0,0.972-0.417,0.998-0.952c0.134-2.772,1.433-5.225,3.564-6.728   c0.451-0.318,0.56-0.942,0.241-1.394C9.823,25.979,9.2,25.872,8.749,26.189z" fill="#8A8A8A"/>
	<path d="M15.675,24.158c-1.28,0-2.498,0.16-3.62,0.476c-0.532,0.149-0.842,0.702-0.692,1.233c0.124,0.441,0.525,0.729,0.962,0.729   c0.09,0,0.182-0.012,0.271-0.037c0.946-0.267,1.982-0.401,3.079-0.401c0.553,0,1-0.447,1-1S16.228,24.158,15.675,24.158z" fill="#8A8A8A"/>
	<path d="M45.196,16.051c0.919,1.387,1.649,2.98,2.17,4.735c0.129,0.435,0.527,0.716,0.959,0.716c0.094,0,0.189-0.013,0.284-0.041   c0.529-0.157,0.832-0.714,0.675-1.243c-0.577-1.946-1.393-3.72-2.422-5.272c-0.306-0.46-0.925-0.588-1.386-0.28   C45.017,14.97,44.891,15.59,45.196,16.051z" fill="#8A8A8A"/>
	<path d="M40.66,9.56c-0.518-0.183-1.087,0.087-1.273,0.604c-0.187,0.519,0.082,1.091,0.6,1.279   c0.012,0.005,1.216,0.454,2.686,1.721c0.189,0.163,0.422,0.243,0.653,0.243c0.28,0,0.56-0.117,0.757-0.347   c0.361-0.419,0.314-1.05-0.104-1.41C42.203,10.119,40.723,9.583,40.66,9.56z" fill="#8A8A8A"/>
</g>
<g>
</g>
<g>
</g>
<g>
</g>
<g>
</g>
<g>
</g>
<g>
</g>
<g>
</g>
<g>
</g>
<g>
</g>
<g>
</g>
<g>
</g>
<g>
</g>
<g>
</g>
<g>
</g>
<g>
</g>
</svg>
